\relax 
\providecommand\hyper@newdestlabel[2]{}
\providecommand\BKM@entry[2]{}
\providecommand*{\memsetcounter}[2]{}
\providecommand\HyperFirstAtBeginDocument{\AtBeginDocument}
\HyperFirstAtBeginDocument{\ifx\hyper@anchor\@undefined
\global\let\oldcontentsline\contentsline
\gdef\contentsline#1#2#3#4{\oldcontentsline{#1}{#2}{#3}}
\global\let\oldnewlabel\newlabel
\gdef\newlabel#1#2{\newlabelxx{#1}#2}
\gdef\newlabelxx#1#2#3#4#5#6{\oldnewlabel{#1}{{#2}{#3}}}
\AtEndDocument{\ifx\hyper@anchor\@undefined
\let\contentsline\oldcontentsline
\let\newlabel\oldnewlabel
\fi}
\fi}
\global\let\hyper@last\relax 
\gdef\HyperFirstAtBeginDocument#1{#1}
\providecommand\HyField@AuxAddToFields[1]{}
\providecommand\HyField@AuxAddToCoFields[2]{}
\@nameuse{bbl@beforestart}
\catcode `"\active 
\citation{abnt-url-package=url}
\citation{abnt-emphasize=bf}
\@writefile{toc}{\changetocdepth  {4}}
\babel@aux{brazil}{}
\babel@aux{brazil}{}
\BKM@entry{id=1,dest={6368617074657262312E30},srcline={72}}{466F6C686120646520726F73746F}
\BKM@entry{id=2,dest={6368617074657262322E30},srcline={76}}{526573756D6F}
\BKM@entry{id=3,dest={6C6F662E30},srcline={85}}{4C6973746120646520696C75737472615C3334375C3336356573}
\@writefile{toc}{\setlength  {\cftchapterindent }{\cftlastnumwidth } \setlength  {\cftchapternumwidth }{2em}}
\BKM@entry{id=4,dest={6C6F742E30},srcline={93}}{4C6973746120646520746162656C6173}
\@writefile{toc}{\setlength  {\cftchapterindent }{\cftlastnumwidth } \setlength  {\cftchapternumwidth }{2em}}
\BKM@entry{id=5,dest={746F632E30},srcline={101}}{53756D5C33343172696F}
\@writefile{toc}{\setlength  {\cftchapterindent }{\cftlastnumwidth } \setlength  {\cftchapternumwidth }{2em}}
\@input{introducao/introducao.aux}
\BKM@entry{id=6,dest={636861707465722E31},srcline={1}}{496E74726F64755C3334375C3334336F}
\BKM@entry{id=7,dest={73656374696F6E2E312E31},srcline={12}}{4F626A657469766F73}
\BKM@entry{id=8,dest={73656374696F6E2E312E32},srcline={22}}{4F7267616E697A615C3334375C3334336F20646F20546578746F}
\@input{fundamentacao/fundamentacao.aux}
\BKM@entry{id=9,dest={636861707465722E32},srcline={1}}{46756E64616D656E74615C3334375C3334336F2054655C33363372696361}
\BKM@entry{id=10,dest={73656374696F6E2E322E31},srcline={9}}{4D65746F646F6C6F67696173205C33303167656973}
\BKM@entry{id=11,dest={73656374696F6E2E322E32},srcline={29}}{47616D69666963615C3334375C3334336F}
\@input{metodologia/metodologia.aux}
\BKM@entry{id=12,dest={636861707465722E33},srcline={1}}{4D65746F646F6C6F676961}
\@input{resultados/resultados.aux}
\BKM@entry{id=13,dest={636861707465722E34},srcline={1}}{416E5C3334316C69736520646F7320526573756C7461646F73}
\@input{conclusao/conclusao.aux}
\BKM@entry{id=14,dest={636861707465722E35},srcline={1}}{436F6E636C75735C3334336F}
\bibdata{abntex2-options,referencias}
\@writefile{toc}{\vspace  {\cftbeforechapterskip }}
\BKM@entry{id=15,dest={73656374696F6E2A2E38},srcline={3}}{52656665725C3335326E63696173}
\bibcite{FabioCruz2018}{Cruz 2015}
\bibciteEXPL{FabioCruz2018}{Cruz}
\bibciteIMPL{FabioCruz2018}{CRUZ}
\bibciteYEAR{FabioCruz2018}{2015}
\bibcite{Huizinga2014}{Huizinga 2014}
\bibciteEXPL{Huizinga2014}{Huizinga}
\bibciteIMPL{Huizinga2014}{HUIZINGA}
\bibciteYEAR{Huizinga2014}{2014}
\bibcite{Newzoo2019}{Newzoo 2019}
\bibciteEXPL{Newzoo2019}{Newzoo}
\bibciteIMPL{Newzoo2019}{NEWZOO}
\bibciteYEAR{Newzoo2019}{2019}
\bibcite{SommerVille2011}{SommerVille 2011}
\bibciteEXPL{SommerVille2011}{SommerVille}
\bibciteIMPL{SommerVille2011}{SOMMERVILLE}
\bibciteYEAR{SommerVille2011}{2011}
\@writefile{toc}{\setlength  {\cftchapterindent }{\cftlastnumwidth } \setlength  {\cftchapternumwidth }{2em}}
\@writefile{toc}{\contentsline {chapter}{\MakeTextUppercase  {Refer\^encias}}{23}{section*.8}\protected@file@percent }
\newlabel{LastPage}{{}{23}{}{page.23}{}}
\xdef\lastpage@lastpage{23}
\xdef\lastpage@lastpageHy{23}
\bibstyle{abntex2-alf}
\memsetcounter{lastsheet}{25}
\memsetcounter{lastpage}{23}
